[
  {
    "id": "0150bb91-33f5-433e-b59e-02eab6da35f0",
    "webcam": null,
    "elevation": 597,
    "lat": 46.192591,
    "lon": 11.161751,
    "weight": 0,
    "id_venue_type": "8",
    "id_region": "150b31ac-970a-460a-91f5-603f8222cfde",
    "name": "Faedo"
  },
  {
    "id": "04ac75f8-bf6b-4c35-afab-aa9abd267373",
    "webcam": null,
    "elevation": 955,
    "lat": 46.059072,
    "lon": 10.7517,
    "weight": 0,
    "id_venue_type": "8",
    "id_region": "f448d23e-660e-4556-af4a-b78b5bd3ab24",
    "name": "Montagne"
  },
  {
    "id": "04f98db0-4dfc-4e6a-a9f5-27e0efde3139",
    "webcam": null,
    "elevation": 629,
    "lat": 46.326547,
    "lon": 11.022765,
    "weight": 0,
    "id_venue_type": "8",
    "id_region": "c0356f56-c39a-4425-a640-41fe6ff9aa5b",
    "name": "Tuenno"
  },
  {
    "id": "09980745-c441-409b-965a-57d805dda4f2",
    "webcam": null,
    "elevation": 773,
    "lat": 46.207216,
    "lon": 11.266891,
    "weight": 0,
    "id_venue_type": "8",
    "id_region": "37bb2112-8b78-4e67-a14b-a8c1841c0804",
    "name": "Valda"
  },
  {
    "id": "0a0b81d9-a83d-4258-9147-8a12e495a02a",
    "webcam": null,
    "elevation": 190,
    "lat": 45.878385,
    "lon": 11.035506,
    "weight": 0,
    "id_venue_type": "8",
    "id_region": "6064a14c-3483-44c4-a64c-45b471b4783c",
    "name": "Lizzanella"
  },
  {
    "id": "0ba89097-85f4-4fa8-b4d8-cbc6531d3bf0",
    "webcam": null,
    "elevation": 778,
    "lat": 46.416552,
    "lon": 11.084684,
    "weight": 0,
    "id_venue_type": "8",
    "id_region": "7dc0dfec-7061-4962-9645-487778b5e93e",
    "name": "Cloz"
  },
  {
    "id": "0d77c740-04ae-4243-81a3-137fce4340dd",
    "webcam": null,
    "elevation": 667,
    "lat": 45.889929,
    "lon": 10.732138,
    "weight": 0,
    "id_venue_type": "8",
    "id_region": "ceca8894-abbc-4ba3-b0ee-e8150b7e3a9f",
    "name": "Pieve di Ledro"
  },
  {
    "id": "0d8c8802-965a-463b-9dfe-a0ee6c955502",
    "webcam": null,
    "elevation": 400,
    "lat": 46.035598,
    "lon": 10.873566,
    "weight": 0,
    "id_venue_type": "8",
    "id_region": "b371e1b3-debc-4587-ab19-94b2f9656c09",
    "name": "Ponte Arche"
  },
  {
    "id": "11f5f106-dcff-4f25-b876-c19610d40d98",
    "webcam": null,
    "elevation": 1186,
    "lat": 46.300864,
    "lon": 11.447845,
    "weight": 0,
    "id_venue_type": "8",
    "id_region": "493f942b-0f26-4266-888d-77382b00569e",
    "name": "Daiano"
  },
  {
    "id": "1281f163-f823-4a3b-9b27-675298953bf1",
    "webcam": null,
    "elevation": 341,
    "lat": 46.122649,
    "lon": 11.117021,
    "weight": 0,
    "id_venue_type": "8",
    "id_region": "db168a1a-c18a-4e83-b3c3-26a077856927",
    "name": "Meano"
  },
  {
    "id": "17b19ce5-eeb5-425b-ada3-07a5d7128d3c",
    "webcam": null,
    "elevation": 727,
    "lat": 45.893523,
    "lon": 10.686283,
    "weight": 0,
    "id_venue_type": "8",
    "id_region": "ceca8894-abbc-4ba3-b0ee-e8150b7e3a9f",
    "name": "Tiarno di Sotto"
  },
  {
    "id": "1896fa78-aeb5-4e99-a5bb-17d2c11d33e3",
    "webcam": null,
    "elevation": 743,
    "lat": 45.890356,
    "lon": 10.672959,
    "weight": 0,
    "id_venue_type": "8",
    "id_region": "ceca8894-abbc-4ba3-b0ee-e8150b7e3a9f",
    "name": "Tiarno di Sopra"
  },
  {
    "id": "1cbde1c9-d9f8-4c64-94e0-b387f1460a29",
    "webcam": null,
    "elevation": 767,
    "lat": 46.188291,
    "lon": 11.831746,
    "weight": 0,
    "id_venue_type": "8",
    "id_region": "77604dfd-9750-4334-8046-74f59c984a3f",
    "name": "Siror"
  },
  {
    "id": "1f4c9bce-91c8-4256-94a0-c699db89452c",
    "webcam": null,
    "elevation": 176,
    "lat": 45.842314,
    "lon": 11.009833,
    "weight": 0,
    "id_venue_type": "8",
    "id_region": "6064a14c-3483-44c4-a64c-45b471b4783c",
    "name": "Marco"
  },
  {
    "id": "210298cb-8981-43c8-9951-f776889e9242",
    "webcam": null,
    "elevation": 722,
    "lat": 46.005147,
    "lon": 11.199776,
    "weight": 0,
    "id_venue_type": "8",
    "id_region": "74070c93-f8fb-4aab-9f64-85a5377bbec5",
    "name": "Vigolo Vattaro"
  },
  {
    "id": "2174fb62-35c7-4ae7-8987-1c5202460908",
    "webcam": null,
    "elevation": 1379,
    "lat": 46.419821,
    "lon": 11.674065,
    "weight": 0,
    "id_venue_type": "8",
    "id_region": "51727344-6fbe-4fb5-b9a4-b8cfce13017b",
    "name": "Vigo di Fassa"
  },
  {
    "id": "233a80b5-41c6-47fe-8955-56ce202f7a4f",
    "webcam": null,
    "elevation": 688,
    "lat": 45.993605,
    "lon": 11.220102,
    "weight": 0,
    "id_venue_type": "8",
    "id_region": "74070c93-f8fb-4aab-9f64-85a5377bbec5",
    "name": "Vattaro"
  },
  {
    "id": "23810681-4bb5-4136-8d8a-91f07ac9ef7b",
    "webcam": null,
    "elevation": 856,
    "lat": 46.221609,
    "lon": 11.293843,
    "weight": 0,
    "id_venue_type": "8",
    "id_region": "37bb2112-8b78-4e67-a14b-a8c1841c0804",
    "name": "Grumes"
  },
  {
    "id": "24a1ec02-c535-4f16-8739-5bc3e4a1d231",
    "webcam": null,
    "elevation": 375,
    "lat": 46.07597,
    "lon": 11.146614,
    "weight": 0,
    "id_venue_type": "8",
    "id_region": "b0d0e3fc-01fe-4004-adf0-d560669bc7f4",
    "name": "Cognola"
  },
  {
    "id": "26ebc854-5890-488a-a8db-2256bf64cf79",
    "webcam": null,
    "elevation": 382,
    "lat": 46.078523,
    "lon": 10.999918,
    "weight": 0,
    "id_venue_type": "8",
    "id_region": "e37d02f6-081c-40a6-a68a-ae3294c6c04a",
    "name": "Vezzano"
  },
  {
    "id": "26f03d94-016d-4366-b602-0d8c2970ccc5",
    "webcam": null,
    "elevation": 614,
    "lat": 46.06252,
    "lon": 10.711286,
    "weight": 0,
    "id_venue_type": "8",
    "id_region": "22a90429-6482-47a7-a1b2-2ed6582bd0f5",
    "name": "Villa Rendena"
  },
  {
    "id": "279456cc-ce05-4812-9d40-e91fc0b4aa40",
    "webcam": null,
    "elevation": 161,
    "lat": 45.741225,
    "lon": 10.954895,
    "weight": 0,
    "id_venue_type": "8",
    "id_region": "328bb878-76fd-4d9c-a198-1af6a2095f2f",
    "name": "Sabbionara"
  },
  {
    "id": "2a701540-4fcf-4492-b2b5-c1f5bf027823",
    "webcam": null,
    "elevation": 554,
    "lat": 46.031961,
    "lon": 10.845611,
    "weight": 0,
    "id_venue_type": "8",
    "id_region": "b371e1b3-debc-4587-ab19-94b2f9656c09",
    "name": "Bleggio inferiore"
  },
  {
    "id": "2bcf8a2d-05ca-4067-9ad2-2fc241fe74b0",
    "webcam": null,
    "elevation": 831,
    "lat": 45.985045,
    "lon": 10.669321,
    "weight": 0,
    "id_venue_type": "8",
    "id_region": "c4a33987-f71e-4497-bb5b-c985e148cafa",
    "name": "Roncone"
  },
  {
    "id": "2e342962-814e-4c21-96eb-532c53dc7edf",
    "webcam": null,
    "elevation": 1046,
    "lat": 46.296527,
    "lon": 11.579962,
    "weight": 0,
    "id_venue_type": "8",
    "id_region": "69793d0f-ca9a-4779-9cf8-9db1e2fe3459",
    "name": "Ronchi di Ala"
  },
  {
    "id": "2e93f08f-9a8b-41fc-895a-87591e003a16",
    "webcam": null,
    "elevation": 788,
    "lat": 45.949236,
    "lon": 10.636825,
    "weight": 0,
    "id_venue_type": "8",
    "id_region": "4eb7b383-f759-40bf-8cb2-5276dd769677",
    "name": "Praso"
  },
  {
    "id": "2fdbc4a7-f177-4c51-96a2-d83be4472d3c",
    "webcam": null,
    "elevation": 646,
    "lat": 45.871499,
    "lon": 10.773104,
    "weight": 0,
    "id_venue_type": "8",
    "id_region": "ceca8894-abbc-4ba3-b0ee-e8150b7e3a9f",
    "name": "Molina di Ledro"
  },
  {
    "id": "3182ca87-7f1c-4d4d-a61f-7d7a99ff84cc",
    "webcam": null,
    "elevation": 398,
    "lat": 46.0661393,
    "lon": 11.1484313,
    "weight": 0,
    "id_venue_type": "8",
    "id_region": "b0d0e3fc-01fe-4004-adf0-d560669bc7f4",
    "name": "Povo"
  },
  {
    "id": "33671bed-c32d-46e2-8efa-225f25d78f12",
    "webcam": null,
    "elevation": 884,
    "lat": 46.307444,
    "lon": 11.119006,
    "weight": 0,
    "id_venue_type": "8",
    "id_region": "48bb1e05-f5c8-4e49-9cb5-72dfb4933499",
    "name": "Verv\u00f2"
  },
  {
    "id": "37d80dad-ad78-42c0-a176-9de6667cc18c",
    "webcam": null,
    "elevation": 1560,
    "lat": 45.841659,
    "lon": 10.684142,
    "weight": 0,
    "id_venue_type": "8",
    "id_region": "ceca8894-abbc-4ba3-b0ee-e8150b7e3a9f",
    "name": "Tremalzo"
  },
  {
    "id": "3b2c01e7-0e9d-4e6d-bf83-1d67e78bc6cb",
    "webcam": null,
    "elevation": 614,
    "lat": 45.942814,
    "lon": 10.633983,
    "weight": 0,
    "id_venue_type": "8",
    "id_region": "4eb7b383-f759-40bf-8cb2-5276dd769677",
    "name": "Bersone"
  },
  {
    "id": "46662a9d-5191-4475-8a1b-4a1d7e39d1ed",
    "webcam": null,
    "elevation": 715,
    "lat": 46.175556,
    "lon": 11.828155,
    "weight": 0,
    "id_venue_type": "8",
    "id_region": "77604dfd-9750-4334-8046-74f59c984a3f",
    "name": "Fiera di Primiero"
  },
  {
    "id": "4941aa49-2f93-470a-92db-e18e32e89465",
    "webcam": null,
    "elevation": 977,
    "lat": 46.341817,
    "lon": 11.107848,
    "weight": 0,
    "id_venue_type": "8",
    "id_region": "48bb1e05-f5c8-4e49-9cb5-72dfb4933499",
    "name": "Smarano"
  },
  {
    "id": "496e8100-b27a-4334-9554-fd78c8e33ae1",
    "webcam": null,
    "elevation": 196,
    "lat": 46.099828,
    "lon": 11.119005,
    "weight": 0,
    "id_venue_type": "8",
    "id_region": "e0c04e2d-8221-48d3-92b9-56e26e743213",
    "name": "Melta"
  },
  {
    "id": "4c8beae1-1789-41bb-81d5-6b69969512dc",
    "webcam": null,
    "elevation": 480,
    "lat": 46.00408,
    "lon": 11.33772,
    "weight": 0,
    "id_venue_type": "8",
    "id_region": "358309dc-78e9-4f6c-8681-c96079d9ea49",
    "name": "Barco"
  },
  {
    "id": "502c7117-4c51-426c-9fb0-ed207fe311f4",
    "webcam": null,
    "elevation": 735,
    "lat": 46.39633,
    "lon": 11.066051,
    "weight": 0,
    "id_venue_type": "8",
    "id_region": "7dc0dfec-7061-4962-9645-487778b5e93e",
    "name": "Romallo"
  },
  {
    "id": "5130d86d-9ae4-4554-a2a4-711f30207ca3",
    "webcam": null,
    "elevation": 822,
    "lat": 45.998582,
    "lon": 10.691953,
    "weight": 0,
    "id_venue_type": "8",
    "id_region": "c4a33987-f71e-4497-bb5b-c985e148cafa",
    "name": "Bondo"
  },
  {
    "id": "55979883-4b31-44b2-bc7d-4f50dd000d7b",
    "webcam": null,
    "elevation": 1045,
    "lat": 46.45391,
    "lon": 11.008531,
    "weight": 0,
    "id_venue_type": "8",
    "id_region": "74014907-3b82-42ee-8de9-307a9a962213",
    "name": "Mocenigo"
  },
  {
    "id": "579a49e5-03ea-4c72-9607-7096d2655dac",
    "webcam": null,
    "elevation": 761,
    "lat": 45.946578,
    "lon": 10.620902,
    "weight": 0,
    "id_venue_type": "8",
    "id_region": "4eb7b383-f759-40bf-8cb2-5276dd769677",
    "name": "Daone"
  },
  {
    "id": "5b101785-4ada-4418-abda-2cd4e3f5d3d0",
    "webcam": null,
    "elevation": 560,
    "lat": 46.053133,
    "lon": 10.77644,
    "weight": 0,
    "id_venue_type": "8",
    "id_region": "f448d23e-660e-4556-af4a-b78b5bd3ab24",
    "name": "Ragoli"
  },
  {
    "id": "5e640909-0f64-4a43-9d4e-11e88605db55",
    "webcam": null,
    "elevation": 513,
    "lat": 46.320872,
    "lon": 11.066654,
    "weight": 0,
    "id_venue_type": "8",
    "id_region": "48bb1e05-f5c8-4e49-9cb5-72dfb4933499",
    "name": "Taio"
  },
  {
    "id": "5f691683-5b38-4f27-b65c-cd2fb1b527ea",
    "webcam": null,
    "elevation": 1078,
    "lat": 46.292225,
    "lon": 11.440548,
    "weight": 0,
    "id_venue_type": "8",
    "id_region": "493f942b-0f26-4266-888d-77382b00569e",
    "name": "Carano"
  },
  {
    "id": "61134c5b-3771-4528-8d53-fad0fe71f9da",
    "webcam": null,
    "elevation": 270,
    "lat": 46.04856,
    "lon": 11.138023,
    "weight": 0,
    "id_venue_type": "8",
    "id_region": "b0d0e3fc-01fe-4004-adf0-d560669bc7f4",
    "name": "Villazzano"
  },
  {
    "id": "62788af0-d009-4f88-a010-5500d124d332",
    "webcam": null,
    "elevation": 540,
    "lat": 45.912178,
    "lon": 10.613196,
    "weight": 0,
    "id_venue_type": "8",
    "id_region": "d2888885-2878-48db-b903-6a1266db3582",
    "name": "Cimego"
  },
  {
    "id": "63cbabed-2994-497c-a386-192e47d12744",
    "webcam": null,
    "elevation": 750,
    "lat": 46.181794,
    "lon": 11.840011,
    "weight": 0,
    "id_venue_type": "8",
    "id_region": "77604dfd-9750-4334-8046-74f59c984a3f",
    "name": "Tonadico"
  },
  {
    "id": "63def287-b05d-413a-be0c-bf7145819c50",
    "webcam": null,
    "elevation": 591,
    "lat": 46.29888,
    "lon": 11.029744,
    "weight": 0,
    "id_venue_type": "8",
    "id_region": "532de7ad-8fee-4162-a298-afc80c3af87f",
    "name": "Flavon"
  },
  {
    "id": "65494f3a-e0e4-4d4a-8b89-d0ea08a58e26",
    "webcam": null,
    "elevation": 391,
    "lat": 46.057409,
    "lon": 11.519998,
    "weight": 0,
    "id_venue_type": "8",
    "id_region": "693fcdd9-aa41-4e24-a88a-bc76925c3e29",
    "name": "Villa Agnedo"
  },
  {
    "id": "6725a75e-55ad-4b99-909b-e4fa6d5f5f95",
    "webcam": null,
    "elevation": 939,
    "lat": 46.455816,
    "lon": 11.116308,
    "weight": 0,
    "id_venue_type": "8",
    "id_region": "cbc65c6e-82aa-4e27-80ab-6a2d56479133",
    "name": "Castelfondo"
  },
  {
    "id": "686e59fd-b46a-46c0-b2b6-c2e7fbf2c026",
    "webcam": null,
    "elevation": 828,
    "lat": 45.96807,
    "lon": 11.232127,
    "weight": 0,
    "id_venue_type": "8",
    "id_region": "74070c93-f8fb-4aab-9f64-85a5377bbec5",
    "name": "Centa San Nicol\u00f2"
  },
  {
    "id": "68827240-f6a5-4e70-9522-dd56f284bea3",
    "webcam": null,
    "elevation": 671,
    "lat": 46.001369,
    "lon": 11.223642,
    "weight": 0,
    "id_venue_type": "8",
    "id_region": "74070c93-f8fb-4aab-9f64-85a5377bbec5",
    "name": "Bosentino"
  },
  {
    "id": "6f03a07b-80e6-481f-bc5f-978c132cb2f9",
    "webcam": null,
    "elevation": 608,
    "lat": 46.075381,
    "lon": 10.718608,
    "weight": 0,
    "id_venue_type": "8",
    "id_region": "22a90429-6482-47a7-a1b2-2ed6582bd0f5",
    "name": "Dar\u00e8"
  },
  {
    "id": "700169be-5429-4179-926f-7726d763ef3a",
    "webcam": null,
    "elevation": 1306,
    "lat": 46.428359,
    "lon": 11.684165,
    "weight": 0,
    "id_venue_type": "8",
    "id_region": "51727344-6fbe-4fb5-b9a4-b8cfce13017b",
    "name": "Pozza di Fassa"
  },
  {
    "id": "71e036df-45b9-4d73-8aa2-20857e0cd834",
    "webcam": null,
    "elevation": 374,
    "lat": 46.08907,
    "lon": 11.129858,
    "weight": 0,
    "id_venue_type": "8",
    "id_region": "b0d0e3fc-01fe-4004-adf0-d560669bc7f4",
    "name": "Martignano"
  },
  {
    "id": "7308517a-a656-4e65-a48b-57a711f5ad00",
    "webcam": null,
    "elevation": 621,
    "lat": 46.078985,
    "lon": 10.7192,
    "weight": 0,
    "id_venue_type": "8",
    "id_region": "22a90429-6482-47a7-a1b2-2ed6582bd0f5",
    "name": "Vigo Rendena"
  },
  {
    "id": "787db691-90f4-42cf-a192-8b8aaebb308f",
    "webcam": null,
    "elevation": 390,
    "lat": 45.836347,
    "lon": 10.969974,
    "weight": 0,
    "id_venue_type": "8",
    "id_region": "034a30f4-aa50-411f-948f-d4365f1be53f",
    "name": "Besagno"
  },
  {
    "id": "78da22dc-e6bd-4a6b-af3e-05b9fbf1994f",
    "webcam": null,
    "elevation": 251,
    "lat": 46.037706,
    "lon": 11.107408,
    "weight": 0,
    "id_venue_type": "8",
    "id_region": "e0c04e2d-8221-48d3-92b9-56e26e743213",
    "name": "Ravina"
  },
  {
    "id": "7adff9ce-1fb6-4924-8cfa-86e05fbdb006",
    "webcam": null,
    "elevation": 275,
    "lat": 46.061655,
    "lon": 10.987935,
    "weight": 0,
    "id_venue_type": "8",
    "id_region": "e37d02f6-081c-40a6-a68a-ae3294c6c04a",
    "name": "Padergnone"
  },
  {
    "id": "817a17b0-aa9c-4d22-b9e7-e1075d8b4853",
    "webcam": null,
    "elevation": 636,
    "lat": 46.012955,
    "lon": 10.877839,
    "weight": 0,
    "id_venue_type": "8",
    "id_region": "b371e1b3-debc-4587-ab19-94b2f9656c09",
    "name": "Lomaso"
  },
  {
    "id": "84f85c93-76ff-431d-86d7-b7690f483bee",
    "webcam": null,
    "elevation": 1209,
    "lat": 46.306583,
    "lon": 11.458709,
    "weight": 0,
    "id_venue_type": "8",
    "id_region": "493f942b-0f26-4266-888d-77382b00569e",
    "name": "Varena"
  },
  {
    "id": "86d99a7a-8e6d-4312-b44a-41bad64d7a90",
    "webcam": null,
    "elevation": 732,
    "lat": 46.391633,
    "lon": 11.05865,
    "weight": 0,
    "id_venue_type": "8",
    "id_region": "7dc0dfec-7061-4962-9645-487778b5e93e",
    "name": "Rev\u00f2"
  },
  {
    "id": "8ad4e0a5-19ca-46b5-8c7a-e782bc4efe14",
    "webcam": null,
    "elevation": 700,
    "lat": 46.168148,
    "lon": 11.157026,
    "weight": 0,
    "id_venue_type": "8",
    "id_region": "35c6a001-c881-4e1e-a405-361a5443b18d",
    "name": "Ville di Giovo"
  },
  {
    "id": "8b68f664-d336-4a09-bb19-2c76989837de",
    "webcam": null,
    "elevation": 1045,
    "lat": 46.435998,
    "lon": 11.14412,
    "weight": 0,
    "id_venue_type": "8",
    "id_region": "cbc65c6e-82aa-4e27-80ab-6a2d56479133",
    "name": "Malosco"
  },
  {
    "id": "8c4285ea-0d8d-4eb6-8c52-52056619a6ff",
    "webcam": null,
    "elevation": 200,
    "lat": 46.108176,
    "lon": 11.111653,
    "weight": 0,
    "id_venue_type": "8",
    "id_region": "e0c04e2d-8221-48d3-92b9-56e26e743213",
    "name": "Gardolo"
  },
  {
    "id": "8cb542a6-5d56-41d8-999c-7026849f271c",
    "webcam": null,
    "elevation": 197,
    "lat": 46.08907,
    "lon": 11.129858,
    "weight": 0,
    "id_venue_type": "8",
    "id_region": "e0c04e2d-8221-48d3-92b9-56e26e743213",
    "name": "Mattarello"
  },
  {
    "id": "918c5ef2-6cc1-4c42-8c33-f2bb96015be6",
    "webcam": null,
    "elevation": 461,
    "lat": 46.066093,
    "lon": 11.523125,
    "weight": 0,
    "id_venue_type": "8",
    "id_region": "693fcdd9-aa41-4e24-a88a-bc76925c3e29",
    "name": "Strigno"
  },
  {
    "id": "966a484b-e231-4cc9-8d7d-6fd0d9479c36",
    "webcam": null,
    "elevation": 685,
    "lat": 46.374507,
    "lon": 11.073387,
    "weight": 0,
    "id_venue_type": "8",
    "id_region": "8b371ebb-2422-42b6-a2ae-abd3f5dd4256",
    "name": "Banco"
  },
  {
    "id": "978dae51-8b80-4850-bb98-b1a11d41baaf",
    "webcam": null,
    "elevation": 789,
    "lat": 45.91237,
    "lon": 10.726073,
    "weight": 0,
    "id_venue_type": "8",
    "id_region": "ceca8894-abbc-4ba3-b0ee-e8150b7e3a9f",
    "name": "Concei"
  },
  {
    "id": "97c61b1d-361d-4873-88d2-14efd8bdf135",
    "webcam": null,
    "elevation": 576,
    "lat": 46.30995,
    "lon": 11.022697,
    "weight": 0,
    "id_venue_type": "8",
    "id_region": "532de7ad-8fee-4162-a298-afc80c3af87f",
    "name": "Terres"
  },
  {
    "id": "9868b7be-54aa-4955-ad48-d40e82c5634f",
    "webcam": null,
    "elevation": 454,
    "lat": 46.023889,
    "lon": 10.983409,
    "weight": 0,
    "id_venue_type": "8",
    "id_region": "80b006a2-5a18-4a96-9902-8a0535f8910d",
    "name": "Lasino"
  },
  {
    "id": "9b5af7f1-beec-462f-bd63-d347c9ddd93c",
    "webcam": null,
    "elevation": 148,
    "lat": 45.913934,
    "lon": 10.905759,
    "weight": 0,
    "id_venue_type": "8",
    "id_region": "d84f35fa-b3dd-4172-b3ac-bf0989f17d43",
    "name": "Bolognano"
  },
  {
    "id": "a0d16d00-53a7-4b89-9b53-9cee0905afc7",
    "webcam": null,
    "elevation": 202,
    "lat": 46.155019,
    "lon": 11.074886,
    "weight": 0,
    "id_venue_type": "8",
    "id_region": "e3927cc1-1e18-48bf-bf7e-c8eeedb32348",
    "name": "Zambana"
  },
  {
    "id": "a164fa09-77bc-47fc-bce0-605f1e73268a",
    "webcam": null,
    "elevation": 982,
    "lat": 46.44004,
    "lon": 11.1377,
    "weight": 0,
    "id_venue_type": "8",
    "id_region": "cbc65c6e-82aa-4e27-80ab-6a2d56479133",
    "name": "Fondo"
  },
  {
    "id": "a27e0f7a-99cf-42be-8d96-845c39699579",
    "webcam": null,
    "elevation": 194,
    "lat": 46.100203,
    "lon": 11.108857,
    "weight": 0,
    "id_venue_type": "8",
    "id_region": "e0c04e2d-8221-48d3-92b9-56e26e743213",
    "name": "Canova"
  },
  {
    "id": "a566e128-47b6-4078-aaf9-4b2e1f61df65",
    "webcam": null,
    "elevation": 520,
    "lat": 46.30615,
    "lon": 11.075497,
    "weight": 0,
    "id_venue_type": "8",
    "id_region": "48bb1e05-f5c8-4e49-9cb5-72dfb4933499",
    "name": "Segno"
  },
  {
    "id": "a568cfd6-70e4-4f8a-82ca-4d27f99645e0",
    "webcam": null,
    "elevation": 696,
    "lat": 45.896359,
    "lon": 10.718465,
    "weight": 0,
    "id_venue_type": "8",
    "id_region": "ceca8894-abbc-4ba3-b0ee-e8150b7e3a9f",
    "name": "Bezzecca"
  },
  {
    "id": "a5aa64d5-a102-43b1-ac5c-e03e0afde275",
    "webcam": null,
    "elevation": 180,
    "lat": 45.884803,
    "lon": 11.023256,
    "weight": 0,
    "id_venue_type": "8",
    "id_region": "6064a14c-3483-44c4-a64c-45b471b4783c",
    "name": "Sacco"
  },
  {
    "id": "ac7bafe7-8bcf-41da-ad4a-047a7e089f9f",
    "webcam": null,
    "elevation": 763,
    "lat": 46.173648,
    "lon": 11.838185,
    "weight": 0,
    "id_venue_type": "8",
    "id_region": "77604dfd-9750-4334-8046-74f59c984a3f",
    "name": "Transacqua"
  },
  {
    "id": "af85c262-7908-4347-8109-47713bdfaa3a",
    "webcam": null,
    "elevation": 782,
    "lat": 46.33532,
    "lon": 10.886176,
    "weight": 0,
    "id_venue_type": "8",
    "id_region": "fba93146-7192-4190-adab-605435fdeea1",
    "name": "Monclassico"
  },
  {
    "id": "ba40f887-bf8c-4810-b03c-69c992405815",
    "webcam": null,
    "elevation": 457,
    "lat": 46.097574,
    "lon": 11.045047,
    "weight": 0,
    "id_venue_type": "8",
    "id_region": "e37d02f6-081c-40a6-a68a-ae3294c6c04a",
    "name": "Terlago"
  },
  {
    "id": "ba7d790b-8f8f-4c5f-818d-6b02d4df343c",
    "webcam": null,
    "elevation": 675,
    "lat": 46.394775,
    "lon": 11.040308,
    "weight": 0,
    "id_venue_type": "8",
    "id_region": "7dc0dfec-7061-4962-9645-487778b5e93e",
    "name": "Cagn\u00f2"
  },
  {
    "id": "bdef4b42-0622-484f-b502-a92374c84a9e",
    "webcam": null,
    "elevation": 744,
    "lat": 46.336123,
    "lon": 10.890073,
    "weight": 0,
    "id_venue_type": "8",
    "id_region": "964becbc-cbeb-46a1-96ea-7bc11dafec89",
    "name": "Monclassico"
  },
  {
    "id": "c063c7cf-526c-499f-8da7-06b57cb16406",
    "webcam": null,
    "elevation": 734,
    "lat": 45.971065,
    "lon": 10.661786,
    "weight": 0,
    "id_venue_type": "8",
    "id_region": "c4a33987-f71e-4497-bb5b-c985e148cafa",
    "name": "Lardaro"
  },
  {
    "id": "c4d1e2af-8033-4dfc-a1d4-9d2aa4467607",
    "webcam": null,
    "elevation": 805,
    "lat": 46.426898,
    "lon": 11.096463,
    "weight": 0,
    "id_venue_type": "8",
    "id_region": "7dc0dfec-7061-4962-9645-487778b5e93e",
    "name": "Arsio"
  },
  {
    "id": "c58b02d1-0faa-4cb6-a586-b7d98f670d70",
    "webcam": null,
    "elevation": 919,
    "lat": 45.895331,
    "lon": 10.589935,
    "weight": 0,
    "id_venue_type": "8",
    "id_region": "d2888885-2878-48db-b903-6a1266db3582",
    "name": "Brione"
  },
  {
    "id": "c6e73415-ffab-4d00-8af4-b2fab29452a8",
    "webcam": null,
    "elevation": 965,
    "lat": 46.230854,
    "lon": 11.298201,
    "weight": 0,
    "id_venue_type": "8",
    "id_region": "37bb2112-8b78-4e67-a14b-a8c1841c0804",
    "name": "Grauno"
  },
  {
    "id": "c9e23017-9a4a-4a2a-9c94-0604104a07c3",
    "webcam": null,
    "elevation": 685,
    "lat": 46.374508,
    "lon": 11.073388,
    "weight": 0,
    "id_venue_type": "8",
    "id_region": "8b371ebb-2422-42b6-a2ae-abd3f5dd4256",
    "name": "Casez"
  },
  {
    "id": "caa8e867-b1d4-4a7e-8aac-e5146e189178",
    "webcam": null,
    "elevation": 625,
    "lat": 46.072181,
    "lon": 11.060402,
    "weight": 0,
    "id_venue_type": "8",
    "id_region": "b0d0e3fc-01fe-4004-adf0-d560669bc7f4",
    "name": "Sopramonte"
  },
  {
    "id": "cf528cef-2c20-4f93-8f51-4fe96d19f206",
    "webcam": null,
    "elevation": 203,
    "lat": 46.166351,
    "lon": 11.11008,
    "weight": 0,
    "id_venue_type": "8",
    "id_region": "e3927cc1-1e18-48bf-bf7e-c8eeedb32348",
    "name": "Nave San Rocco"
  },
  {
    "id": "d02cd234-01c2-44b5-893c-c04aacd27aa4",
    "webcam": null,
    "elevation": 604,
    "lat": 46.034682,
    "lon": 10.751863,
    "weight": 0,
    "id_venue_type": "8",
    "id_region": "c8bba394-70cc-4aea-bf96-f4ef26cfc152",
    "name": "Zuclo"
  },
  {
    "id": "d131d31b-2d8d-4eed-897e-b99a51d75517",
    "webcam": null,
    "elevation": 550,
    "lat": 46.314672,
    "lon": 11.048561,
    "weight": 0,
    "id_venue_type": "8",
    "id_region": "c0356f56-c39a-4425-a640-41fe6ff9aa5b",
    "name": "Nanno"
  },
  {
    "id": "d3085bb3-1fb5-40d3-a603-9cc570a6bd84",
    "webcam": null,
    "elevation": 842,
    "lat": 46.350081,
    "lon": 11.087899,
    "weight": 0,
    "id_venue_type": "8",
    "id_region": "48bb1e05-f5c8-4e49-9cb5-72dfb4933499",
    "name": "Coredo"
  },
  {
    "id": "d35d5a97-5423-4d11-aadf-2002ed3d7a84",
    "webcam": null,
    "elevation": 402,
    "lat": 46.046472,
    "lon": 10.983815,
    "weight": 0,
    "id_venue_type": "8",
    "id_region": "80b006a2-5a18-4a96-9902-8a0535f8910d",
    "name": "Calavino"
  },
  {
    "id": "d3bd3aa4-155b-471c-abff-11a085a203b0",
    "webcam": null,
    "elevation": 437,
    "lat": 45.889678,
    "lon": 10.59823,
    "weight": 0,
    "id_venue_type": "8",
    "id_region": "d2888885-2878-48db-b903-6a1266db3582",
    "name": "Condino"
  },
  {
    "id": "db83b2d8-86b3-436a-a1a3-25d1c1880dac",
    "webcam": null,
    "elevation": 192,
    "lat": 45.868346,
    "lon": 11.032443,
    "weight": 0,
    "id_venue_type": "8",
    "id_region": "6064a14c-3483-44c4-a64c-45b471b4783c",
    "name": "Lizzana"
  },
  {
    "id": "dbba930f-03cc-44b1-a269-764af5e4494d",
    "webcam": null,
    "elevation": 547,
    "lat": 46.069543,
    "lon": 11.509407,
    "weight": 0,
    "id_venue_type": "8",
    "id_region": "693fcdd9-aa41-4e24-a88a-bc76925c3e29",
    "name": "Spera"
  },
  {
    "id": "dd6c89c5-9bb4-4e06-95b2-767a97fd7321",
    "webcam": null,
    "elevation": 537,
    "lat": 46.33617,
    "lon": 11.050955,
    "weight": 0,
    "id_venue_type": "8",
    "id_region": "c0356f56-c39a-4425-a640-41fe6ff9aa5b",
    "name": "Tassullo"
  },
  {
    "id": "defad245-4081-4024-b522-bcf7fdc3b11e",
    "webcam": null,
    "elevation": 900,
    "lat": 46.3145357,
    "lon": 10.8113437,
    "weight": 0,
    "id_venue_type": "8",
    "id_region": "5a5d33b6-7144-4913-b1be-45dbd7a9d7fd",
    "name": "Marilleva"
  },
  {
    "id": "e18b4576-e4fc-4e45-a972-31635b6543ab",
    "webcam": null,
    "elevation": 790,
    "lat": 46.321685,
    "lon": 11.095373,
    "weight": 0,
    "id_venue_type": "8",
    "id_region": "48bb1e05-f5c8-4e49-9cb5-72dfb4933499",
    "name": "Tres"
  },
  {
    "id": "e1980c4c-9191-4bdd-80c8-718d3b251d18",
    "webcam": null,
    "elevation": 577,
    "lat": 46.032062,
    "lon": 10.736528,
    "weight": 0,
    "id_venue_type": "8",
    "id_region": "c8bba394-70cc-4aea-bf96-f4ef26cfc152",
    "name": "Bolbeno"
  },
  {
    "id": "e2ecada2-5d00-4202-b171-0e42775963bc",
    "webcam": null,
    "elevation": 194,
    "lat": 46.101822,
    "lon": 11.098762,
    "weight": 0,
    "id_venue_type": "8",
    "id_region": "e0c04e2d-8221-48d3-92b9-56e26e743213",
    "name": "Roncafort"
  },
  {
    "id": "e5c30b34-301f-4258-b1e9-c0d574ea10a2",
    "webcam": null,
    "elevation": 210,
    "lat": 46.194551,
    "lon": 11.130272,
    "weight": 0,
    "id_venue_type": "8",
    "id_region": "150b31ac-970a-460a-91f5-603f8222cfde",
    "name": "Grumo"
  },
  {
    "id": "e5daf51f-4822-409c-8bdd-5a2cf6ebab5c",
    "webcam": null,
    "elevation": 1166,
    "lat": 46.352298,
    "lon": 10.693325,
    "weight": 0,
    "id_venue_type": "8",
    "id_region": "27b0481d-1e45-4fb8-8fe8-72c26e339e8a",
    "name": "Cogolo"
  },
  {
    "id": "e8177ba0-57ad-49bc-a8ca-d16b1d78d5fc",
    "webcam": null,
    "elevation": 200,
    "lat": 46.16366,
    "lon": 11.11092,
    "weight": 0,
    "id_venue_type": "8",
    "id_region": "db168a1a-c18a-4e83-b3c3-26a077856927",
    "name": "Nave San Felice"
  },
  {
    "id": "eb86f3f9-4200-4f39-9a44-dc00f8b7e5df",
    "webcam": null,
    "elevation": 676,
    "lat": 46.181119,
    "lon": 11.237289,
    "weight": 0,
    "id_venue_type": "8",
    "id_region": "37bb2112-8b78-4e67-a14b-a8c1841c0804",
    "name": "Faver"
  },
  {
    "id": "ef43e183-c8d8-4437-8d37-48ca0ba354b8",
    "webcam": null,
    "elevation": 573,
    "lat": 46.286534,
    "lon": 11.034309,
    "weight": 0,
    "id_venue_type": "8",
    "id_region": "532de7ad-8fee-4162-a298-afc80c3af87f",
    "name": "Cunevo"
  },
  {
    "id": "f0015682-ecb8-45eb-b170-e9a513b13585",
    "webcam": null,
    "elevation": 792,
    "lat": 46.431016,
    "lon": 11.107386,
    "weight": 0,
    "id_venue_type": "8",
    "id_region": "7dc0dfec-7061-4962-9645-487778b5e93e",
    "name": "Brez"
  },
  {
    "id": "f23bcb59-e1e2-4668-a486-05342b226881",
    "webcam": null,
    "elevation": 498,
    "lat": 46.156742,
    "lon": 11.152575,
    "weight": 0,
    "id_venue_type": "8",
    "id_region": "35c6a001-c881-4e1e-a405-361a5443b18d",
    "name": "Verla"
  },
  {
    "id": "f59e476d-787f-466f-aa45-b3de2bcfe4f6",
    "webcam": null,
    "elevation": 801,
    "lat": 46.008046,
    "lon": 10.699371,
    "weight": 0,
    "id_venue_type": "8",
    "id_region": "c4a33987-f71e-4497-bb5b-c985e148cafa",
    "name": "Breguzzo"
  },
  {
    "id": "ff41016d-6cea-4cce-8842-d64b18b22085",
    "webcam": null,
    "elevation": 524,
    "lat": 46.046298,
    "lon": 10.758465,
    "weight": 0,
    "id_venue_type": "8",
    "id_region": "f448d23e-660e-4556-af4a-b78b5bd3ab24",
    "name": "Preore"
  }
]