<?xml version="1.0" encoding="UTF-8" standalone="no"?>
<svg
   viewBox="0 0 45.549999 45.549998"
   version="1.1"
   id="svg18"
   width="45.549999"
   height="45.549999"
   xmlns="http://www.w3.org/2000/svg"
   xmlns:svg="http://www.w3.org/2000/svg">
  <defs
     id="defs10">
    <clipPath
       id="clip-path">
      <path
         class="cls-t-1"
         d="M -310.84,-315.78 H 531.05 V 1101.54 H -310.84 Z"
         id="path2" />
    </clipPath>
    <clipPath
       id="clip-path-2">
      <path
         class="cls-t-1"
         d="M -310.84,-315.79 H 531.05 V 1101.53 H -310.84 Z"
         id="path5" />
    </clipPath>
    <style
       id="style8">
            .cls-t-1 {
                fill: none
            }

            .cls-t-3 {
                clip-path: url(#clip-path-2)
            }
        </style>
  </defs>
  <g
     clip-path="url(#clip-path)"
     id="g14"
     transform="translate(-18.3,-6.405)"
     style="fill:#784421">
    <path
       style="fill:#784421"
       d="M 61.35,50.23 45.17,8.13 38.7,23.58 35.91,18.76 20.8,50.23 Z"
       id="path12" />
  </g>
  <path
     class="cls-t-1"
     d="M -20.8,-8.13 H 43.95 V 45.86 H -20.8 Z"
     id="path16" />
</svg>
